﻿{
	"configurations": [
		{
			"name": "x64-Debug",
			"generator": "Ninja",
			"configurationType": "Debug",
			"inheritEnvironments": [ "msvc_x64_x64" ],
			"buildRoot": "${projectDir}\\build",
			"installRoot": "${projectDir}\\out\\install\\${name}",
			"cmakeCommandArgs": "Quasar",
			"ctestCommandArgs": ""
		},
		{
			"name": "x64-Release",
			"generator": "Ninja",
			"configurationType": "Release",
			"buildRoot": "${projectDir}\\build",
			"installRoot": "${projectDir}\\out\\install\\${name}",
			"cmakeCommandArgs": "Quasar",
			"inheritEnvironments": [ "msvc_x64_x64" ]
		},
		{
			"name": "x64-Debug-Headless",
			"generator": "Ninja",
			"configurationType": "Debug",
			"inheritEnvironments": [ "msvc_x64_x64" ],
			"buildRoot": "${projectDir}\\build",
			"installRoot": "${projectDir}\\out\\install\\${name}",
			"cmakeCommandArgs": "Quasar_Headless",
			"ctestCommandArgs": ""
		},
		{
			"name": "x64-Release-Headless",
			"generator": "Ninja",
			"configurationType": "Release",
			"buildRoot": "${projectDir}\\build",
			"installRoot": "${projectDir}\\out\\install\\${name}",
			"cmakeCommandArgs": "Quasar_Headless",
			"inheritEnvironments": [ "msvc_x64_x64" ]
		}
	]
}